{
    "cinemas": [{
        "id": 26195,
        "mark": 0,
        "nm": "大地院线影城（珠江摩尔店）",
        "sellPrice": "33",
        "addr": "昌平区回龙观镇北清路1号院7号楼内7-101-26",
        "distance": "4.1km",
        "tag": {
            "allowRefund": 1,
            "buyout": 0,
            "cityCardTag": 0,
            "deal": 0,
            "endorse": 1,
            "hallTypeVOList": [],
            "sell": 1,   
            "snack": 1,
            "vipTag": "折扣卡"
        },
        "promotion": {
            "cardPromotionTag": "开卡特惠，首单2张最高立减6元"
        }
    }, {
        "id": 107,
        "mark": 0,
        "nm": "中影国际影城（昌平永旺店）",
        "sellPrice": "35.9",
        "addr": "昌平区北清路1号永旺国际商城3楼",
        "distance": "4.2km",
        "tag": {
            "allowRefund": 0,
            "buyout": 0,
            "cityCardTag": 0,
            "deal": 0,
            "endorse": 0,
            "hallType": ["DTS:X 临境音厅"],
            "hallTypeVOList": [{
                "name": "DTS:X 临境音厅",
                "url": ""
            }],
            "sell": 1,
            "snack": 1,
            "vipTag": "折扣卡"
        },
        "promotion": {
            "cardPromotionTag": "开卡特惠，首单2张最高立减6元"
        }
    }, {
        "id": 25346,
        "mark": 0,
        "nm": "华联影院（回龙观店）",
        "sellPrice": "28",
        "addr": "昌平区回龙观镇西大街111号三层F3-90",
        "distance": "7.6km",
        "tag": {
            "allowRefund": 0,
            "buyout": 0,
            "cityCardTag": 0,
            "deal": 0,
            "endorse": 1,
            "hallTypeVOList": [],
            "sell": 1,
            "snack": 0
        },
        "promotion": {}
    }, {
        "id": 25814,
        "mark": 0,
        "nm": "莱纳龙域影城",
        "sellPrice": "29.9",
        "addr": "昌平区龙域中街1号院1号楼昌发展万科广场5层",
        "distance": "8.2km",
        "tag": {
            "allowRefund": 1,
            "buyout": 0,
            "cityCardTag": 0,
            "deal": 0,
            "endorse": 1,
            "hallType": ["杜比全景声厅", "DTS:X 临境音厅", "4K厅"],
            "hallTypeVOList": [{
                "name": "杜比全景声厅",
                "url": ""
            }, {
                "name": "DTS:X 临境音厅",
                "url": ""
            }, {
                "name": "4K厅",
                "url": ""
            }],
            "sell": 1,
            "snack": 1
        },
        "promotion": {}
    }, {
        "id": 9647,
        "mark": 0,
        "nm": "沃美影城（回龙观店）",
        "sellPrice": "39",
        "addr": "昌平区回龙观同成街华联购物中心四楼（城铁回龙观站出口对面）",
        "distance": "9.2km",
        "tag": {
            "allowRefund": 0,
            "buyout": 0,
            "cityCardTag": 0,
            "deal": 0,
            "endorse": 0,
            "hallType": ["杜比全景声厅"],
            "hallTypeVOList": [{
                "name": "杜比全景声厅",
                "url": ""
            }],
            "sell": 1,
            "snack": 1,
            "vipTag": "折扣卡"
        },
        "promotion": {}
    }, {
        "id": 16285,
        "mark": 0,
        "nm": "耀莱成龙影城（温泉镇店）",
        "sellPrice": "45",
        "addr": "海淀区温泉镇北部文化中心D座",
        "distance": "9.4km",
        "tag": {
            "allowRefund": 0,
            "buyout": 0,
            "cityCardTag": 0,
            "deal": 0,
            "endorse": 1,
            "hallType": ["杜比全景声厅"],
            "hallTypeVOList": [{
                "name": "杜比全景声厅",
                "url": ""
            }],
            "sell": 1,
            "snack": 1,
            "vipTag": "折扣卡"
        },
        "promotion": {
            "cardPromotionTag": "开卡特惠，首单2张最高立减2元"
        }
    }, {
        "id": 5502,
        "mark": 0,
        "nm": "保利国际影城（龙旗广场店）",
        "sellPrice": "29",
        "addr": "昌平区黄平路19号院3号楼龙旗广场购物中心3层（地铁8号线育新站路北600米，近永辉超市）",
        "distance": "10.2km",
        "tag": {
            "allowRefund": 0,
            "buyout": 0,
            "cityCardTag": 0,
            "deal": 0,
            "endorse": 0,
            "hallType": ["4K厅"],
            "hallTypeVOList": [{
                "name": "4K厅",
                "url": ""
            }],
            "sell": 1,
            "snack": 1,
            "vipTag": "折扣卡"
        },
        "promotion": {
            "cardPromotionTag": "开卡特惠，首单2张最高立减12元"
        }
    }, {
        "id": 8186,
        "mark": 0,
        "nm": "首都电影院（悦荟万科广场店）",
        "sellPrice": "34",
        "addr": "昌平区南环路10号院1号楼悦荟万科广场8层",
        "distance": "10.8km",
        "tag": {
            "allowRefund": 0,
            "buyout": 0,
            "cityCardTag": 0,
            "deal": 0,
            "endorse": 0,
            "hallTypeVOList": [],
            "sell": 1,
            "snack": 1,
            "vipTag": "折扣卡"
        },
        "promotion": {
            "cardPromotionTag": "开卡特惠，首单2张最高立减6元"
        }
    }, {
        "id": 25016,
        "mark": 0,
        "nm": "中影星美国际影城（温都水城店）",
        "sellPrice": "19",
        "addr": "昌平区北七家镇温都水城广场4-5层",
        "distance": "10.9km",
        "tag": {
            "allowRefund": 0,
            "buyout": 0,
            "cityCardTag": 0,
            "deal": 0,
            "endorse": 1,
            "hallTypeVOList": [],
            "sell": 1,
            "snack": 1,
            "vipTag": "折扣卡"
        },
        "promotion": {
            "cardPromotionTag": "开卡特惠，首单2张最高立减6元"
        }
    }, {
        "id": 7433,
        "mark": 0,
        "nm": "大地影院（西三旗物美店）",
        "sellPrice": "36.9",
        "addr": "海淀区悦秀路99号二层",
        "distance": "10.9km",
        "tag": {
            "allowRefund": 0,
            "buyout": 0,
            "cityCardTag": 0,
            "deal": 0,
            "endorse": 0,
            "hallTypeVOList": [],
            "sell": 1,
            "snack": 1,
            "vipTag": "折扣卡"
        },
        "promotion": {
            "cardPromotionTag": "开卡特惠，首单1张最高立减10元"
        }
    }, {
        "id": 25172,
        "mark": 0,
        "nm": "华联影城（肖家河店）",
        "sellPrice": "33",
        "addr": "海淀区龙背村路99号院北京华联龙背购物中心",
        "distance": "11.2km",
        "tag": {
            "allowRefund": 0,
            "buyout": 0,
            "cityCardTag": 0,
            "deal": 0,
            "endorse": 1,
            "hallTypeVOList": [],
            "sell": 1,
            "snack": 1,
            "vipTag": "折扣卡"
        },
        "promotion": {
            "cardPromotionTag": "开卡特惠，首单2张最高立减6元"
        }
    }, {
        "id": 25045,
        "mark": 0,
        "nm": "东融国际影城（西小口店）",
        "sellPrice": "38",
        "addr": "海淀区文龙家园四里4号楼4F-08",
        "distance": "12km",
        "tag": {
            "allowRefund": 0,
            "buyout": 0,
            "cityCardTag": 0,
            "deal": 0,
            "endorse": 0,
            "hallType": ["4D厅"],
            "hallTypeVOList": [{
                "name": "4D厅",
                "url": ""
            }],
            "sell": 1,
            "snack": 1
        },
        "promotion": {}
    }, {
        "id": 58,
        "mark": 0,
        "nm": "金逸影城（新都店）",
        "sellPrice": "20",
        "addr": "海淀区西三旗建材城中路6号新都购物广场1层",
        "distance": "12km",
        "tag": {
            "allowRefund": 0,
            "buyout": 0,
            "cityCardTag": 0,
            "deal": 0,
            "endorse": 0,
            "hallTypeVOList": [],
            "sell": 1,
            "snack": 1
        },
        "promotion": {}
    }, {
        "id": 66,
        "mark": 0,
        "nm": "大地影院（昌平菓岭店）",
        "sellPrice": "33.9",
        "addr": "昌平区昌崔路203号果岭假日广场四楼",
        "distance": "12km",
        "tag": {
            "allowRefund": 0,
            "buyout": 0,
            "cityCardTag": 0,
            "deal": 0,
            "endorse": 0,
            "hallTypeVOList": [],
            "sell": 1,
            "snack": 1,
            "vipTag": "折扣卡"
        },
        "promotion": {
            "cardPromotionTag": "开卡特惠，首单1张最高立减10元"
        }
    }, {
        "id": 50,
        "mark": 0,
        "nm": "万达影城（昌平保利光魔店）",
        "sellPrice": "36",
        "addr": "昌平区鼓楼南大街6号佳莲时代广场4楼（近鼓楼西街）",
        "distance": "12.1km",
        "tag": {
            "allowRefund": 0,
            "buyout": 0,
            "cityCardTag": 0,
            "deal": 0,
            "endorse": 1,
            "hallTypeVOList": [],
            "sell": 1,
            "snack": 1
        },
        "promotion": {}
    }, {
        "id": 5111,
        "mark": 0,
        "nm": "CGV影城（清河店）",
        "sellPrice": "54",
        "addr": "海淀区清河中街68号华润五彩城购物中心东区7层",
        "distance": "12.1km",
        "tag": {
            "allowRefund": 0,
            "buyout": 0,
            "cityCardTag": 0,
            "deal": 0,
            "endorse": 0,
            "hallType": ["60帧厅"],
            "hallTypeVOList": [],
            "sell": 1,
            "snack": 1,
            "vipTag": "折扣卡"
        },
        "promotion": {
            "cardPromotionTag": "开卡特惠，首单2张最高立减4元"
        }
    }, {
        "id": 5359,
        "mark": 0,
        "nm": "新华国际影城（宝盛店）",
        "sellPrice": "36.5",
        "addr": "海淀区宝盛北里西区28号兴美生活广场5层",
        "distance": "13.8km",
        "tag": {
            "allowRefund": 0,
            "buyout": 0,
            "cityCardTag": 0,
            "deal": 0,
            "endorse": 0,
            "hallTypeVOList": [],
            "sell": 1,
            "snack": 1,
            "vipTag": "折扣卡"
        },
        "promotion": {}
    }, {
        "id": 26649,
        "mark": 0,
        "nm": "中影星美国际影城（天通苑店）",
        "sellPrice": "38",
        "addr": "昌平区东小口镇天通苑西三区天通尾货3层",
        "distance": "14.8km",
        "tag": {
            "allowRefund": 1,
            "buyout": 0,
            "cityCardTag": 0,
            "deal": 0,
            "endorse": 1,
            "hallTypeVOList": [],
            "sell": 1,
            "snack": 1,
            "vipTag": "折扣卡"
        },
        "promotion": {
            "cardPromotionTag": "开卡特惠，首单2张最高立减6元"
        }
    }, {
        "id": 70,
        "mark": 0,
        "nm": "嘉华国际影城（学清路店）",
        "sellPrice": "24",
        "addr": "海淀区学清路甲8号圣熙8号购物中心5层西侧（学清路）",
        "distance": "15km",
        "tag": {
            "allowRefund": 0,
            "buyout": 0,
            "cityCardTag": 0,
            "deal": 0,
            "endorse": 0,
            "hallType": ["巨幕厅"],
            "hallTypeVOList": [{
                "name": "巨幕厅",
                "url": ""
            }],
            "sell": 1,
            "snack": 1,
            "vipTag": "折扣卡"
        },
        "promotion": {
            "cardPromotionTag": "开卡特惠，首单2张最高立减4元"
        }
    }, {
        "id": 26808,
        "mark": 0,
        "nm": "耀莱成龙影城（玉泉山店）",
        "sellPrice": "29",
        "addr": "海淀区北坞嘉园南里35号楼玉泉商业生活中心",
        "distance": "15.5km",
        "tag": {
            "allowRefund": 0,
            "buyout": 0,
            "cityCardTag": 0,
            "deal": 0,
            "endorse": 1,
            "hallType": ["4DX厅"],
            "hallTypeVOList": [{
                "name": "4DX厅",
                "url": ""
            }],
            "sell": 1,
            "snack": 1,
            "vipTag": "折扣卡"
        },
        "promotion": {
            "cardPromotionTag": "开卡特惠，首单2张最高立减2元"
        }
    }],
    "ct_pois": [{
        "ct_poi": "936879945111165696_a26195_c0",
        "poiid": 189719766
    }, {
        "ct_poi": "936879945111165696_a107_c1",
        "poiid": 82598
    }, {
        "ct_poi": "936879945111165696_a25346_c2",
        "poiid": 175463726
    }, {
        "ct_poi": "936879945111165696_a25814_c3",
        "poiid": 184222752
    }, {
        "ct_poi": "936879945111165696_a9647_c4",
        "poiid": 4058821
    }, {
        "ct_poi": "936879945111165696_a16285_c5",
        "poiid": 116256540
    }, {
        "ct_poi": "936879945111165696_a5502_c6",
        "poiid": 3320660
    }, {
        "ct_poi": "936879945111165696_a8186_c7",
        "poiid": 373237
    }, {
        "ct_poi": "936879945111165696_a25016_c8",
        "poiid": 165628212
    }, {
        "ct_poi": "936879945111165696_a7433_c9",
        "poiid": 4845675
    }, {
        "ct_poi": "936879945111165696_a25172_c10",
        "poiid": 166727606
    }, {
        "ct_poi": "936879945111165696_a25045_c11",
        "poiid": 165628440
    }, {
        "ct_poi": "936879945111165696_a58_c12",
        "poiid": 1549060
    }, {
        "ct_poi": "936879945111165696_a66_c13",
        "poiid": 1432377
    }, {
        "ct_poi": "936879945111165696_a50_c14",
        "poiid": 361208
    }, {
        "ct_poi": "936879945111165696_a5111_c15",
        "poiid": 2374984
    }, {
        "ct_poi": "936879945111165696_a5359_c16",
        "poiid": 2408760
    }, {
        "ct_poi": "936879945111165696_a26649_c17",
        "poiid": 191228472
    }, {
        "ct_poi": "936879945111165696_a70_c18",
        "poiid": 84440
    }, {
        "ct_poi": "936879945111165696_a26808_c19",
        "poiid": 191417722
    }],
    "paging": {
        "hasMore": true,
        "limit": 20,
        "offset": 0,
        "total": 248
    },
    "resId": "1564813622052"
}